Computational Biology | Protocols general info – Computational Biology | 2026
…
Or model missingness explicitly.

For this exploratory analysis, we remove incomplete cases (NAs):

zebrafish_clean <- zebrafish |>
  drop_na()

# Now we transform the character variables into factors 
  # to facilitate data modelling and visualization
zebrafish_clean |>
  mutate(strain = as.factor(strain),
         treatment = as.factor(treatment),
         sex = as.factor(sex))

# A tibble: 333 × 8
   strain treatment body_length_mm body_width_mm caudal_fin_length_mm
   <fct>  <fct>              <dbl>         <dbl>                <dbl>
 1 AB     WT                  39.1          9.35                 6.03
 2 AB     WT                  39.5          8.7                  6.2 
 3 AB     WT                  40.3          9                    6.5 
 4 AB     WT                  36.7          9.65                 6.43
 5 AB     WT                  39.3         10.3                  6.33
 6 AB     WT                  38.9          8.9                  6.03
 7 AB     WT                  39.2          9.8                  6.5 
 8 AB     WT                  41.1          8.8                  6.07
 9 AB     WT                  38.6         10.6                  6.37
10 AB     WT                  34.6         10.6                  6.6 
# ℹ 323 more rows
# ℹ 3 more variables: body_mass_g <dbl>, sex <fct>, year <dbl>
…
